{"success":true,"data":{"products":[{"id":"aa51d7d5-08c9-4f70-94b6-99c88f1b1b08","slug":"siz-338","title":"Аптечка индивидуальная лесного пожарного «Шанс»","summary":"Индивидуальная аптечка лесного пожарного.","price":0,"image":"http://localhost:3000/ProductImages/aptechka-individualnaya-lesnogo-pozharnogo-shans.png","category":{"id":"cmeiag2lm01exuv7c58phy8yi","name":"siz","slug":"siz"}},{"id":"1f81fa74-aec5-4cdf-8815-76a7e61daab8","slug":"siz-337","title":"Аптечка групповая лесного пожарного «Шанс»","summary":"Групповая аптечка лесного пожарного.","price":0,"image":"http://localhost:3000/ProductImages/aptechka-gruppovaya-lesnogo-pozharnogo-shans.png","category":{"id":"cmeiag2lm01exuv7c58phy8yi","name":"siz","slug":"siz"}},{"id":"6748749a-3ecd-462b-ae29-61240a4f1b76","slug":"siz-336","title":"Плащ металлизированный комплекта защитной экипировки пожарного-добровольца (КЗЭПД) «Шанс»-Д","summary":"Металлизированный плащ КЗЭПД «Шанс»-Д.","price":0,"image":"http://localhost:3000/ProductImages/plasch-metallizirovannyi-kzepd-shans-d.png","category":{"id":"cmeiag2lm01exuv7c58phy8yi","name":"siz","slug":"siz"}},{"id":"a9977764-02a3-4d6e-b755-baad8c3c00b7","slug":"siz-335","title":"Костюм термостойкий комплекта защитной экипировки пожарного-добровольца (КЗЭПД) «Шанс»-Д","summary":"Термостойкий костюм КЗЭПД «Шанс»-Д.","price":0,"image":"http://localhost:3000/ProductImages/kostyum-termostoikiy-kzepd-shans-d.png","category":{"id":"cmeiag2lm01exuv7c58phy8yi","name":"siz","slug":"siz"}},{"id":"d1412fba-79f8-4dcd-ade5-49f442c16ec0","slug":"siz-334","title":"Пожарный костюм добровольца «Шанс» (Премиум)","summary":"Костюм добровольца «Шанс» (Премиум).","price":0,"image":"http://localhost:3000/ProductImages/kostyum-dobrovolca-shans-premium.png","category":{"id":"cmeiag2lm01exuv7c58phy8yi","name":"siz","slug":"siz"}},{"id":"ba36780e-16b8-4b9d-b112-2c1e7e9157bf","slug":"siz-333","title":"Пожарный костюм добровольца «Шанс» (камуфляжный/ сигнальный)","summary":"Костюм добровольца «Шанс» (камуфляж/сигнал).","price":0,"image":"http://localhost:3000/ProductImages/kostyum-dobrovolca-shans-kamuflyazh-signal.png","category":{"id":"cmeiag2lm01exuv7c58phy8yi","name":"siz","slug":"siz"}},{"id":"a4fa85c1-054e-4ba2-962e-d8b5255df4c3","slug":"siz-332","title":"Комплект фильтров к ГДЗР «Шанс» марки SXCOP2 NR","summary":"Фильтры SXCOP2 NR для ГДЗР «Шанс».","price":0,"image":"http://localhost:3000/ProductImages/komplekt-filtrov-gdzr-shans-sxcop2-nr.png","category":{"id":"cmeiag2lm01exuv7c58phy8yi","name":"siz","slug":"siz"}},{"id":"58c6f17e-09a1-44cc-a6d2-434b0275113a","slug":"siz-331","title":"Дымозащитный набор «Шанс»","summary":"Дымозащитный набор «Шанс».","price":0,"image":"http://localhost:3000/ProductImages/dymozashitnyi-nabor-shans.png","category":{"id":"cmeiag2lm01exuv7c58phy8yi","name":"siz","slug":"siz"}},{"id":"76a73ab9-f859-442e-b982-cf1a51ca8ef2","slug":"siz-330","title":"Газодымозащитный респиратор (ГДЗР) «Шанс»","summary":"ГДЗР «Шанс».","price":0,"image":"http://localhost:3000/ProductImages/gdzr-shans.png","category":{"id":"cmeiag2lm01exuv7c58phy8yi","name":"siz","slug":"siz"}},{"id":"53bb5b68-bc90-40ba-96fd-b370d43ed04f","slug":"siz-329","title":"Модульный аварийно-спасательный комплект (МАСК) «Шанс»","summary":"МАСК «Шанс».","price":0,"image":"http://localhost:3000/ProductImages/mask-shans.png","category":{"id":"cmeiag2lm01exuv7c58phy8yi","name":"siz","slug":"siz"}},{"id":"42fb7da6-ea9d-407e-b560-ff6d2e7e1426","slug":"siz-328","title":"Фильтр комбинированный «Шанс» (резьбовое соединение М45х3)","summary":"ФК «Шанс», резьба М45х3.","price":0,"image":"http://localhost:3000/ProductImages/fk-shans-m45x3.png","category":{"id":"cmeiag2lm01exuv7c58phy8yi","name":"siz","slug":"siz"}},{"id":"387429fa-e658-4b43-b69c-aee4843a1dca","slug":"siz-327","title":"Фильтр комбинированный ФК «Шанс» (резьбовое соединение М40х4)","summary":"ФК «Шанс», резьба М40х4.","price":0,"image":"http://localhost:3000/ProductImages/fk-shans-m40x4.png","category":{"id":"cmeiag2lm01exuv7c58phy8yi","name":"siz","slug":"siz"}}],"pagination":{"total":338,"page":1,"limit":12,"pages":29}}}
